<svg width="32" height="36" viewBox="0 0 32 36" fill="none" xmlns="http://www.w3.org/2000/svg">
<path d="M5.34424 5.87796C4.75846 5.87707 4.18612 5.71042 3.69958 5.39909C3.21304 5.08776 2.83416 4.64572 2.61086 4.12889C2.38755 3.61205 2.32985 3.04363 2.44504 2.49549C2.56023 1.94736 2.84315 1.44413 3.25801 1.04945C3.67288 0.654774 4.20106 0.386366 4.77576 0.278172C5.35046 0.169979 5.94588 0.226858 6.48671 0.441618C7.02754 0.656378 7.48949 1.01937 7.81416 1.4847C8.13883 1.95003 8.31162 2.49679 8.31069 3.05584C8.31007 3.42703 8.23285 3.79448 8.08344 4.13719C7.93403 4.47991 7.71535 4.79118 7.43989 5.05324C7.16443 5.3153 6.83758 5.52301 6.47801 5.66451C6.11843 5.80602 5.73318 5.87855 5.34424 5.87796ZM5.34424 0.808926C4.8786 0.808926 4.42341 0.940705 4.03624 1.1876C3.64908 1.43449 3.34732 1.78541 3.16912 2.19598C2.99093 2.60655 2.94431 3.05833 3.03515 3.49419C3.12599 3.93004 3.35022 4.33041 3.67948 4.64464C4.00874 4.95888 4.42824 5.17288 4.88493 5.25957C5.34163 5.34627 5.815 5.30177 6.2452 5.13171C6.6754 4.96165 7.04309 4.67366 7.30179 4.30415C7.56049 3.93465 7.69856 3.50023 7.69856 3.05584C7.69856 2.76077 7.63767 2.46859 7.51935 2.19598C7.40104 1.92337 7.22762 1.67568 7.009 1.46703C6.79038 1.25839 6.53084 1.09288 6.2452 0.979962C5.95956 0.867044 5.65341 0.808926 5.34424 0.808926Z" fill="white"/>
<path d="M5.34432 6.10261C4.71198 6.10172 4.09412 5.92189 3.56886 5.58587C3.04361 5.24985 2.63455 4.77273 2.39343 4.21484C2.1523 3.65694 2.08993 3.04334 2.21421 2.45162C2.33849 1.8599 2.64383 1.31664 3.09162 0.890532C3.53941 0.464429 4.10954 0.174622 4.72991 0.0577581C5.35028 -0.0591055 5.99303 0.00222379 6.57688 0.23399C7.16073 0.465757 7.65946 0.857551 8.01 1.35983C8.36053 1.86211 8.54713 2.45231 8.5462 3.0558C8.54559 3.4565 8.46228 3.85316 8.30103 4.22314C8.13979 4.59311 7.90377 4.92916 7.60644 5.21208C7.30912 5.495 6.95632 5.71926 6.56818 5.87206C6.18005 6.02486 5.76418 6.1032 5.34432 6.10261ZM5.34432 0.44938C4.80551 0.450269 4.27906 0.603511 3.83144 0.889755C3.38382 1.176 3.03511 1.58241 2.82935 2.05766C2.62359 2.53292 2.56999 3.05571 2.67534 3.56001C2.78068 4.06432 3.04024 4.52752 3.42124 4.89114C3.80224 5.25475 4.28759 5.50247 4.816 5.60301C5.34441 5.70355 5.89219 5.6524 6.39017 5.45602C6.88814 5.25964 7.31398 4.92685 7.61391 4.49965C7.91384 4.07246 8.07441 3.57002 8.07534 3.0558C8.07534 2.36453 7.78761 1.70158 7.27544 1.21278C6.76328 0.723984 6.06863 0.44938 5.34432 0.44938ZM5.34432 5.51841C4.83305 5.51752 4.33353 5.37196 3.90894 5.10013C3.48435 4.8283 3.15375 4.44242 2.95896 3.99127C2.76416 3.54013 2.71392 3.04399 2.81458 2.56559C2.91523 2.08719 3.16228 1.64803 3.52446 1.30362C3.88664 0.959221 4.3477 0.725053 4.84933 0.630731C5.35096 0.536409 5.87064 0.586169 6.34263 0.773719C6.81463 0.961269 7.21776 1.27818 7.50103 1.68439C7.78431 2.0906 7.93501 2.56785 7.93408 3.0558C7.93346 3.37978 7.86598 3.70048 7.7355 3.99958C7.60502 4.29867 7.41409 4.57031 7.17361 4.79899C6.93313 5.02766 6.6478 5.2089 6.33393 5.33233C6.02006 5.45577 5.68379 5.519 5.34432 5.51841ZM5.34432 1.02459C4.92658 1.02548 4.51847 1.14446 4.17152 1.36651C3.82456 1.58856 3.55431 1.90373 3.39488 2.27224C3.23545 2.64075 3.19398 3.04607 3.2757 3.43705C3.35743 3.82803 3.55869 4.18714 3.85408 4.46906C4.14947 4.75097 4.52575 4.94305 4.93542 5.02105C5.34509 5.09904 5.7698 5.05946 6.15592 4.90731C6.54204 4.75515 6.87228 4.49723 7.10495 4.1661C7.33761 3.83498 7.46228 3.44549 7.46321 3.04681C7.46072 2.51204 7.23638 1.99999 6.83928 1.62269C6.44218 1.24539 5.90466 1.03357 5.34432 1.03358V1.02459Z" fill="white"/>
<path d="M9.41722 14.605C9.10245 14.6062 8.79986 14.4889 8.57508 14.2786C8.35031 14.0683 8.22147 13.7819 8.21652 13.4815V12.4479C8.21652 12.3705 8.24876 12.2962 8.30616 12.2414C8.36356 12.1866 8.44141 12.1558 8.52258 12.1558C8.60375 12.1558 8.6816 12.1866 8.739 12.2414C8.7964 12.2962 8.82864 12.3705 8.82864 12.4479V13.4815C8.83473 13.6266 8.89941 13.7637 9.00914 13.8643C9.11887 13.9648 9.26512 14.0209 9.41722 14.0208C9.57179 14.0118 9.71716 13.9476 9.82446 13.8411C9.93176 13.7345 9.99313 13.5933 9.99639 13.4455V9.4775C9.99514 8.83827 9.72819 8.22562 9.25413 7.77403C8.78007 7.32244 8.13764 7.06881 7.46784 7.06882H3.37602C2.70623 7.06881 2.06379 7.32244 1.58973 7.77403C1.11567 8.22562 0.848724 8.83827 0.847476 9.4775V13.4815C0.851062 13.6234 0.911743 13.7586 1.01694 13.859C1.12214 13.9594 1.26379 14.0173 1.41251 14.0208C1.56578 14.0232 1.7139 13.968 1.8249 13.8671C1.93591 13.7662 2.00088 13.6277 2.0058 13.4815V12.4479C2.0058 12.3705 2.03805 12.2962 2.09545 12.2414C2.15285 12.1866 2.23069 12.1558 2.31187 12.1558C2.39304 12.1558 2.47089 12.1866 2.52829 12.2414C2.58568 12.2962 2.61793 12.3705 2.61793 12.4479V13.4815C2.61793 13.783 2.49242 14.0722 2.26901 14.2854C2.0456 14.4987 1.74259 14.6184 1.42664 14.6184C1.11069 14.6184 0.807682 14.4987 0.584272 14.2854C0.360862 14.0722 0.235352 13.783 0.235352 13.4815V9.4775C0.236599 8.68333 0.568041 7.92209 1.1569 7.36094C1.74575 6.7998 2.54388 6.48462 3.37602 6.48462H7.46313C8.29528 6.48462 9.0934 6.7998 9.68226 7.36094C10.2711 7.92209 10.6026 8.68333 10.6038 9.4775V13.4815C10.592 13.7774 10.4629 14.058 10.2427 14.2666C10.0224 14.4751 9.72736 14.5961 9.41722 14.605Z" fill="white"/>
<path d="M9.4173 14.8296C9.04266 14.8296 8.68336 14.6876 8.41845 14.4347C8.15353 14.1819 8.00471 13.839 8.00471 13.4815V12.4479C8.00471 12.3108 8.06176 12.1794 8.16331 12.0825C8.26486 11.9855 8.40259 11.9311 8.5462 11.9311C8.68982 11.9311 8.82755 11.9855 8.9291 12.0825C9.03065 12.1794 9.0877 12.3108 9.0877 12.4479V13.4815C9.09126 13.5681 9.12925 13.6503 9.19397 13.7112C9.25868 13.7722 9.34527 13.8073 9.43614 13.8095C9.66216 13.8095 9.76575 13.5848 9.77987 13.4365V9.47746C9.77862 8.89782 9.53648 8.34232 9.10657 7.93287C8.67666 7.52342 8.09411 7.29346 7.48676 7.29347H3.3761C2.76875 7.29346 2.1862 7.52342 1.75629 7.93287C1.32638 8.34232 1.08424 8.89782 1.08299 9.47746V13.4815C1.08647 13.5638 1.12231 13.6419 1.18339 13.7002C1.24446 13.7585 1.32629 13.7927 1.4126 13.796C1.50313 13.7974 1.59074 13.7655 1.65734 13.7069C1.72393 13.6484 1.76443 13.5677 1.77045 13.4815V12.4479C1.77045 12.38 1.78446 12.3128 1.81167 12.2501C1.83888 12.1874 1.87877 12.1304 1.92905 12.0825C1.97934 12.0345 2.03903 11.9964 2.10473 11.9704C2.17042 11.9445 2.24084 11.9311 2.31195 11.9311C2.38306 11.9311 2.45347 11.9445 2.51917 11.9704C2.58487 11.9964 2.64456 12.0345 2.69484 12.0825C2.74513 12.1304 2.78501 12.1874 2.81222 12.2501C2.83944 12.3128 2.85344 12.38 2.85344 12.4479V13.4815C2.85344 13.8426 2.70313 14.1889 2.43557 14.4443C2.168 14.6996 1.80511 14.8431 1.42672 14.8431C1.04833 14.8431 0.685439 14.6996 0.417877 14.4443C0.150315 14.1889 5.63845e-09 13.8426 0 13.4815L0 9.47746C0.00124768 8.6237 0.357494 7.8053 0.990501 7.20202C1.62351 6.59874 2.48152 6.25989 3.3761 6.25989H7.46321C8.35616 6.26226 9.21176 6.60216 9.84273 7.20519C10.4737 7.80822 10.8287 8.62525 10.8299 9.47746V13.4815C10.8159 13.8347 10.6626 14.17 10.4007 14.4199C10.1387 14.6699 9.78748 14.8163 9.4173 14.8296ZM8.52266 12.3805C8.50393 12.3805 8.48596 12.3876 8.47272 12.4002C8.45947 12.4129 8.45203 12.43 8.45203 12.4479V13.4815C8.45203 13.7198 8.55125 13.9484 8.72786 14.117C8.90447 14.2855 9.144 14.3802 9.39376 14.3802C9.64534 14.3688 9.88287 14.2662 10.0579 14.0933C10.2329 13.9204 10.3322 13.6904 10.3355 13.45V9.47746C10.3342 8.74288 10.0276 8.03879 9.4829 7.51978C8.9382 7.00077 8.19995 6.70927 7.43025 6.70927H3.3761C2.6064 6.70927 1.86816 7.00077 1.32345 7.51978C0.77875 8.03879 0.472113 8.74288 0.470865 9.47746V13.4815C0.470865 13.7234 0.571571 13.9554 0.750829 14.1265C0.930087 14.2976 1.17321 14.3937 1.42672 14.3937C1.68023 14.3937 1.92336 14.2976 2.10261 14.1265C2.28187 13.9554 2.38258 13.7234 2.38258 13.4815V12.4479C2.38258 12.376 2.24132 12.376 2.24132 12.4479V13.4815C2.23517 13.6869 2.145 13.8819 1.99012 14.0246C1.83523 14.1674 1.62793 14.2467 1.4126 14.2454C1.20143 14.2419 0.999932 14.1603 0.850594 14.0178C0.701257 13.8753 0.615756 13.683 0.612125 13.4815V9.47746C0.613372 8.77863 0.905127 8.10884 1.42334 7.61511C1.94155 7.12138 2.64387 6.84408 3.3761 6.84408H7.46321C8.19507 6.84527 8.89667 7.12295 9.41461 7.61642C9.93255 8.10989 10.2247 8.779 10.2272 9.47746V13.4455C10.2239 13.6521 10.1383 13.8497 9.98791 13.9982C9.8375 14.1468 9.63349 14.2352 9.4173 14.2454C9.20314 14.2444 8.99771 14.1642 8.84409 14.0218C8.69047 13.8794 8.60059 13.6857 8.59329 13.4815V12.4479C8.59329 12.43 8.58585 12.4129 8.5726 12.4002C8.55936 12.3876 8.54139 12.3805 8.52266 12.3805Z" fill="white"/>
<path d="M8.52263 16.1777H2.31192C2.23075 16.1777 2.1529 16.147 2.0955 16.0922C2.03811 16.0374 2.00586 15.9631 2.00586 15.8856V11.3649C2.00586 11.2874 2.03811 11.2131 2.0955 11.1583C2.1529 11.1035 2.23075 11.0728 2.31192 11.0728C2.39309 11.0728 2.47094 11.1035 2.52834 11.1583C2.58574 11.2131 2.61798 11.2874 2.61798 11.3649V15.6115H8.21657V11.3649C8.21657 11.2874 8.24882 11.2131 8.30622 11.1583C8.36361 11.1035 8.44146 11.0728 8.52263 11.0728C8.60381 11.0728 8.68166 11.1035 8.73905 11.1583C8.79645 11.2131 8.8287 11.2874 8.8287 11.3649V15.9036C8.8239 15.9779 8.78954 16.0477 8.73266 16.0986C8.67577 16.1496 8.60065 16.1779 8.52263 16.1777Z" fill="white"/>
<path d="M8.52272 16.4205H2.312C2.16877 16.4193 2.03175 16.3645 1.93047 16.2678C1.82918 16.1712 1.77174 16.0404 1.77051 15.9037V11.3649C1.77051 11.2279 1.82756 11.0964 1.92911 10.9995C2.03066 10.9026 2.16839 10.8481 2.312 10.8481C2.45562 10.8481 2.59335 10.9026 2.6949 10.9995C2.79645 11.0964 2.8535 11.2279 2.8535 11.3649V15.4094H8.00476V11.3649C8.00476 11.2279 8.06181 11.0964 8.16336 10.9995C8.26491 10.9026 8.40264 10.8481 8.54626 10.8481C8.68987 10.8481 8.8276 10.9026 8.92915 10.9995C9.0307 11.0964 9.08775 11.2279 9.08775 11.3649V15.9037C9.08782 15.9735 9.07308 16.0426 9.0444 16.1068C9.01573 16.171 8.97372 16.229 8.92092 16.2773C8.86812 16.3256 8.80561 16.3632 8.73717 16.3878C8.66873 16.4124 8.59578 16.4235 8.52272 16.4205ZM2.312 11.2975C2.29327 11.2975 2.27531 11.3046 2.26206 11.3173C2.24881 11.3299 2.24137 11.3471 2.24137 11.3649V15.9037C2.24137 15.9216 2.24881 15.9387 2.26206 15.9514C2.27531 15.964 2.29327 15.9711 2.312 15.9711H8.52272C8.54145 15.9711 8.55941 15.964 8.57266 15.9514C8.5859 15.9387 8.59334 15.9216 8.59334 15.9037V11.3649C8.59334 11.293 8.45209 11.293 8.45209 11.3649V15.8588H2.38263V11.3649C2.38263 11.3471 2.37519 11.3299 2.36195 11.3173C2.3487 11.3046 2.33073 11.2975 2.312 11.2975Z" fill="white"/>
<path d="M5.41967 12.1333C5.3385 12.1333 5.26065 12.1025 5.20325 12.0477C5.14585 11.9929 5.11361 11.9186 5.11361 11.8412V8.35397H4.41202C4.33085 8.35397 4.253 8.3232 4.1956 8.26842C4.1382 8.21364 4.10596 8.13934 4.10596 8.06187C4.10596 7.9844 4.1382 7.91011 4.1956 7.85533C4.253 7.80055 4.33085 7.76978 4.41202 7.76978H6.42732C6.5085 7.76978 6.58634 7.80055 6.64374 7.85533C6.70114 7.91011 6.73339 7.9844 6.73339 8.06187C6.73339 8.13934 6.70114 8.21364 6.64374 8.26842C6.58634 8.3232 6.5085 8.35397 6.42732 8.35397H5.72573V11.8367C5.72636 11.8754 5.7189 11.9139 5.7038 11.9498C5.6887 11.9858 5.66625 12.0185 5.63777 12.0461C5.60929 12.0737 5.57534 12.0957 5.53789 12.1106C5.50045 12.1256 5.46026 12.1333 5.41967 12.1333Z" fill="white"/>
<path d="M5.41958 12.3536C5.27596 12.3536 5.13823 12.2991 5.03668 12.2022C4.93513 12.1053 4.87808 11.9738 4.87808 11.8368V8.57874H4.40722C4.2636 8.57874 4.12587 8.5243 4.02432 8.42738C3.92277 8.33046 3.86572 8.19902 3.86572 8.06196C3.86572 7.92489 3.92277 7.79345 4.02432 7.69653C4.12587 7.59961 4.2636 7.54517 4.40722 7.54517H6.42252C6.56613 7.54517 6.70386 7.59961 6.80541 7.69653C6.90696 7.79345 6.96401 7.92489 6.96401 8.06196C6.96401 8.19902 6.90696 8.33046 6.80541 8.42738C6.70386 8.5243 6.56613 8.57874 6.42252 8.57874H5.95166V11.8368C5.95048 11.9719 5.89434 12.1014 5.79507 12.1978C5.6958 12.2942 5.56117 12.3501 5.41958 12.3536ZM4.41193 7.99455C4.39319 7.99455 4.37523 8.00165 4.36198 8.01429C4.34874 8.02693 4.3413 8.04408 4.3413 8.06196C4.34059 8.07098 4.34194 8.08004 4.34524 8.08852C4.34854 8.09701 4.35372 8.10471 4.36042 8.11111C4.36713 8.11751 4.3752 8.12245 4.38409 8.1256C4.39298 8.12875 4.40247 8.13003 4.41193 8.12936H5.35366V11.8368C5.35366 11.9087 5.49492 11.9087 5.49492 11.8368V8.12936H6.43665C6.45538 8.12936 6.47334 8.12226 6.48659 8.10962C6.49983 8.09698 6.50728 8.07983 6.50728 8.06196C6.50728 8.04408 6.49983 8.02693 6.48659 8.01429C6.47334 8.00165 6.45538 7.99455 6.43665 7.99455H4.41193Z" fill="white"/>
<path d="M22.7051 25.4574C22.1193 25.4565 21.547 25.2899 21.0604 24.9786C20.5739 24.6672 20.195 24.2252 19.9717 23.7084C19.7484 23.1915 19.6907 22.6231 19.8059 22.075C19.9211 21.5268 20.204 21.0236 20.6189 20.6289C21.0337 20.2342 21.5619 19.9658 22.1366 19.8576C22.7113 19.7494 23.3067 19.8063 23.8475 20.0211C24.3884 20.2358 24.8503 20.5988 25.175 21.0642C25.4997 21.5295 25.6725 22.0763 25.6715 22.6353C25.6709 23.0065 25.5937 23.3739 25.4443 23.7167C25.2949 24.0594 25.0762 24.3706 24.8007 24.6327C24.5253 24.8948 24.1984 25.1025 23.8388 25.244C23.4793 25.3855 23.094 25.458 22.7051 25.4574ZM22.7051 20.3884C22.2394 20.3884 21.7843 20.5202 21.3971 20.7671C21.0099 21.014 20.7082 21.3649 20.53 21.7754C20.3518 22.186 20.3051 22.6378 20.396 23.0737C20.4868 23.5095 20.7111 23.9099 21.0403 24.2241C21.3696 24.5383 21.7891 24.7523 22.2458 24.839C22.7025 24.9257 23.1758 24.8812 23.606 24.7112C24.0362 24.5411 24.4039 24.2531 24.6626 23.8836C24.9213 23.5141 25.0594 23.0797 25.0594 22.6353C25.0594 22.0394 24.8114 21.4679 24.3698 21.0465C23.9283 20.6251 23.3295 20.3884 22.7051 20.3884Z" fill="white"/>
<path d="M22.7051 25.6822C22.0723 25.6831 21.4535 25.5048 20.927 25.1698C20.4005 24.8349 19.99 24.3584 19.7474 23.8007C19.5049 23.2429 19.4412 22.629 19.5644 22.0367C19.6876 21.4444 19.9922 20.9003 20.4396 20.4733C20.887 20.0463 21.4571 19.7556 22.0778 19.638C22.6984 19.5204 23.3416 19.5812 23.926 19.8127C24.5104 20.0442 25.0097 20.436 25.3607 20.9385C25.7116 21.441 25.8984 22.0315 25.8975 22.6354C25.8963 23.4431 25.5595 24.2174 24.9611 24.7885C24.3627 25.3596 23.5514 25.681 22.7051 25.6822ZM22.7051 20.029C22.1662 20.0299 21.6398 20.1831 21.1922 20.4693C20.7446 20.7556 20.3958 21.162 20.1901 21.6373C19.9843 22.1125 19.9307 22.6353 20.0361 23.1396C20.1414 23.6439 20.401 24.1071 20.782 24.4707C21.163 24.8343 21.6483 25.0821 22.1767 25.1826C22.7051 25.2831 23.2529 25.232 23.7509 25.0356C24.2489 24.8392 24.6747 24.5064 24.9746 24.0792C25.2746 23.652 25.4351 23.1496 25.4361 22.6354C25.4361 21.9441 25.1483 21.2812 24.6362 20.7924C24.124 20.3036 23.4294 20.029 22.7051 20.029ZM22.7051 25.098C22.1938 25.0971 21.6943 24.9515 21.2697 24.6797C20.8451 24.4079 20.5145 24.022 20.3197 23.5709C20.1249 23.1197 20.0747 22.6236 20.1753 22.1452C20.276 21.6668 20.523 21.2276 20.8852 20.8832C21.2474 20.5388 21.7084 20.3046 22.2101 20.2103C22.7117 20.116 23.2314 20.1658 23.7034 20.3533C24.1754 20.5409 24.5785 20.8578 24.8618 21.264C25.145 21.6702 25.2957 22.1474 25.2948 22.6354C25.2942 22.9594 25.2267 23.2801 25.0962 23.5792C24.9658 23.8783 24.7748 24.1499 24.5343 24.3786C24.2939 24.6073 24.0085 24.7885 23.6947 24.9119C23.3808 25.0354 23.0445 25.0986 22.7051 25.098ZM22.7051 20.6042C22.2873 20.6051 21.8792 20.724 21.5323 20.9461C21.1853 21.1681 20.915 21.4833 20.7556 21.8518C20.5962 22.2203 20.5547 22.6257 20.6364 23.0166C20.7182 23.4076 20.9194 23.7667 21.2148 24.0486C21.5102 24.3306 21.8865 24.5226 22.2962 24.6006C22.7058 24.6786 23.1305 24.6391 23.5167 24.4869C23.9028 24.3347 24.233 24.0768 24.4657 23.7457C24.6983 23.4146 24.823 23.0251 24.8239 22.6264C24.8215 22.0916 24.5971 21.5796 24.2 21.2023C23.8029 20.825 23.2654 20.6132 22.7051 20.6132V20.6042Z" fill="white"/>
<path d="M26.7639 34.18C26.6077 34.1801 26.453 34.1506 26.3087 34.0934C26.1645 34.0362 26.0334 33.9524 25.9232 33.8468C25.8129 33.7411 25.7256 33.6158 25.6663 33.4779C25.6069 33.3399 25.5767 33.1922 25.5773 33.0431V32.0275C25.5773 31.95 25.6096 31.8757 25.667 31.821C25.7244 31.7662 25.8022 31.7354 25.8834 31.7354C25.9646 31.7354 26.0424 31.7662 26.0998 31.821C26.1572 31.8757 26.1894 31.95 26.1894 32.0275V33.0431C26.1894 33.1889 26.2498 33.3288 26.3574 33.4324C26.465 33.5359 26.6111 33.5947 26.7639 33.5959C26.9189 33.5891 27.0654 33.5263 27.1738 33.4204C27.2822 33.3145 27.3444 33.1732 27.3478 33.0251V29.0571C27.3465 28.4186 27.0802 27.8067 26.6072 27.3552C26.1341 26.9037 25.4929 26.6496 24.8239 26.6484H20.718C20.0486 26.6484 19.4067 26.9022 18.9334 27.3539C18.4601 27.8056 18.1942 28.4183 18.1942 29.0571V33.0521C18.1954 33.1967 18.2565 33.335 18.3641 33.4369C18.4717 33.5387 18.6171 33.5959 18.7686 33.5959C18.9222 33.5959 19.0695 33.5376 19.1781 33.434C19.2868 33.3303 19.3478 33.1897 19.3478 33.0431V32.0275C19.3478 31.9892 19.3557 31.9512 19.3711 31.9157C19.3865 31.8803 19.409 31.8481 19.4374 31.821C19.4658 31.7938 19.4996 31.7723 19.5367 31.7576C19.5738 31.743 19.6136 31.7354 19.6538 31.7354C19.694 31.7354 19.7338 31.743 19.771 31.7576C19.8081 31.7723 19.8418 31.7938 19.8703 31.821C19.8987 31.8481 19.9212 31.8803 19.9366 31.9157C19.952 31.9512 19.9599 31.9892 19.9599 32.0275V33.0431C19.9409 33.3317 19.8073 33.6025 19.5864 33.8005C19.3656 33.9984 19.074 34.1086 18.771 34.1086C18.468 34.1086 18.1764 33.9984 17.9555 33.8005C17.7346 33.6025 17.6011 33.3317 17.582 33.0431V29.0571C17.5833 28.2637 17.9141 27.5031 18.5019 26.9421C19.0897 26.3811 19.8867 26.0654 20.718 26.0642H24.8098C25.6411 26.0654 26.4381 26.3811 27.0259 26.9421C27.6137 27.5031 27.9445 28.2637 27.9458 29.0571V33.0521C27.9352 33.348 27.8073 33.6291 27.5879 33.8385C27.3685 34.0479 27.074 34.17 26.7639 34.18Z" fill="white"/>
<path d="M26.764 34.4047C26.3893 34.4047 26.03 34.2627 25.7651 34.0098C25.5002 33.757 25.3514 33.4141 25.3514 33.0566V32.0275C25.3514 31.8904 25.4084 31.759 25.51 31.662C25.6115 31.5651 25.7493 31.5107 25.8929 31.5107C26.0365 31.5107 26.1742 31.5651 26.2758 31.662C26.3773 31.759 26.4344 31.8904 26.4344 32.0275V33.0431C26.4344 33.1293 26.4699 33.2121 26.5334 33.2735C26.5968 33.3349 26.6831 33.3699 26.7734 33.3711C27.023 33.3711 27.1077 33.1419 27.1218 33.0026V29.0571C27.1206 28.4782 26.8791 27.9234 26.4502 27.514C26.0213 27.1047 25.44 26.8742 24.8334 26.8731H20.7181C20.1115 26.8742 19.5302 27.1047 19.1013 27.514C18.6724 27.9234 18.4309 28.4782 18.4297 29.0571V33.0521C18.4297 33.0943 18.4385 33.1362 18.4556 33.1752C18.4727 33.2142 18.4977 33.2496 18.5292 33.2793C18.5608 33.309 18.5982 33.3324 18.6393 33.3481C18.6804 33.3639 18.7244 33.3717 18.7687 33.3711C18.8599 33.3711 18.9473 33.3366 19.0117 33.275C19.0762 33.2135 19.1124 33.1301 19.1124 33.0431V32.0275C19.1124 31.8904 19.1695 31.759 19.271 31.662C19.3726 31.5651 19.5103 31.5107 19.6539 31.5107C19.7975 31.5107 19.9353 31.5651 20.0368 31.662C20.1384 31.759 20.1954 31.8904 20.1954 32.0275V33.0431C20.1954 33.4036 20.0453 33.7494 19.7782 34.0043C19.5111 34.2592 19.1488 34.4025 18.771 34.4025C18.3933 34.4025 18.031 34.2592 17.7639 34.0043C17.4967 33.7494 17.3467 33.4036 17.3467 33.0431V29.0571C17.3479 28.2041 17.7035 27.3864 18.3355 26.7832C18.9675 26.18 19.8243 25.8407 20.7181 25.8395H24.8099C25.7037 25.8407 26.5605 26.18 27.1925 26.7832C27.8244 27.3864 28.18 28.2041 28.1813 29.0571V33.0521C28.1684 33.4069 28.0149 33.7438 27.7519 33.9949C27.4888 34.2459 27.1358 34.3924 26.764 34.4047ZM25.8976 31.9601C25.8789 31.9601 25.8609 31.9672 25.8476 31.9798C25.8344 31.9924 25.827 32.0096 25.827 32.0275V33.0431C25.827 33.2814 25.9262 33.51 26.1028 33.6786C26.2794 33.8471 26.5189 33.9418 26.7687 33.9418C27.0199 33.9315 27.2574 33.8299 27.4325 33.6577C27.6076 33.4856 27.707 33.256 27.7104 33.0161V29.0571C27.7092 28.3232 27.4032 27.6198 26.8595 27.101C26.3158 26.5821 25.5788 26.29 24.8099 26.2889H20.7181C19.9488 26.2889 19.211 26.5805 18.6671 27.0996C18.1231 27.6188 17.8175 28.3229 17.8175 29.0571V33.0521C17.8175 33.2934 17.918 33.5249 18.0968 33.6955C18.2756 33.8662 18.5182 33.9621 18.771 33.9621C19.0239 33.9621 19.2665 33.8662 19.4453 33.6955C19.6241 33.5249 19.7245 33.2934 19.7245 33.0521V32.0275C19.7245 31.9511 19.5833 31.9511 19.5833 32.0275V33.0431C19.5677 33.2385 19.4753 33.421 19.3247 33.5542C19.1741 33.6874 18.9764 33.7614 18.771 33.7614C18.5657 33.7614 18.368 33.6874 18.2174 33.5542C18.0667 33.421 17.9744 33.2385 17.9588 33.0431V29.0571C17.96 28.359 18.2512 27.6899 18.7684 27.1963C19.2855 26.7027 19.9867 26.4249 20.7181 26.4237H24.8099C25.5413 26.4249 26.2424 26.7027 26.7596 27.1963C27.2768 27.6899 27.5679 28.359 27.5692 29.0571V33.0251C27.5645 33.2324 27.4771 33.4301 27.3249 33.5779C27.1726 33.7258 26.9669 33.8125 26.7499 33.8205C26.6431 33.8205 26.5374 33.8004 26.4388 33.7612C26.3403 33.7221 26.2508 33.6648 26.1755 33.5925C26.1002 33.5203 26.0407 33.4345 26.0003 33.3402C25.9598 33.2459 25.9393 33.145 25.94 33.0431V32.0275C25.9412 32.0134 25.9377 31.9993 25.9301 31.9873C25.9225 31.9752 25.9112 31.9657 25.8976 31.9601Z" fill="white"/>
<path d="M25.8974 35.7753H19.6679C19.6277 35.7753 19.5879 35.7677 19.5508 35.7531C19.5136 35.7384 19.4799 35.7169 19.4515 35.6897C19.423 35.6626 19.4005 35.6304 19.3851 35.595C19.3697 35.5595 19.3618 35.5216 19.3618 35.4832V30.9444C19.3618 30.867 19.3941 30.7927 19.4515 30.7379C19.5089 30.6831 19.5867 30.6523 19.6679 30.6523C19.7491 30.6523 19.8269 30.6831 19.8843 30.7379C19.9417 30.7927 19.9739 30.867 19.9739 30.9444V35.1911H25.5772V30.9444C25.5772 30.867 25.6095 30.7927 25.6669 30.7379C25.7243 30.6831 25.8021 30.6523 25.8833 30.6523C25.9645 30.6523 26.0423 30.6831 26.0997 30.7379C26.1571 30.7927 26.1894 30.867 26.1894 30.9444V35.5012C26.1848 35.5732 26.1524 35.6411 26.0985 35.6917C26.0446 35.7423 25.973 35.7721 25.8974 35.7753Z" fill="white"/>
<path d="M25.8975 36.0001H19.668C19.5279 35.999 19.3936 35.9467 19.2928 35.8539C19.1921 35.761 19.1325 35.6348 19.1265 35.5013V30.9445C19.1265 30.8767 19.1405 30.8095 19.1677 30.7468C19.1949 30.6841 19.2348 30.6271 19.2851 30.5791C19.3353 30.5311 19.395 30.493 19.4607 30.4671C19.5264 30.4411 19.5969 30.4277 19.668 30.4277C19.7391 30.4277 19.8095 30.4411 19.8752 30.4671C19.9409 30.493 20.0006 30.5311 20.0509 30.5791C20.1011 30.6271 20.141 30.6841 20.1682 30.7468C20.1954 30.8095 20.2095 30.8767 20.2095 30.9445V34.989H25.3419V30.9445C25.3419 30.8075 25.3989 30.676 25.5005 30.5791C25.602 30.4822 25.7398 30.4277 25.8834 30.4277C26.027 30.4277 26.1647 30.4822 26.2663 30.5791C26.3678 30.676 26.4249 30.8075 26.4249 30.9445V35.5013C26.419 35.6325 26.3614 35.7568 26.2637 35.8493C26.1659 35.9418 26.0351 35.9957 25.8975 36.0001ZM19.6821 30.8771C19.6634 30.8771 19.6454 30.8842 19.6321 30.8969C19.6189 30.9095 19.6115 30.9266 19.6115 30.9445V35.5013C19.6115 35.5191 19.6189 35.5363 19.6321 35.5489C19.6454 35.5616 19.6634 35.5687 19.6821 35.5687H25.8975C25.9162 35.5687 25.9342 35.5616 25.9475 35.5489C25.9607 35.5363 25.9681 35.5191 25.9681 35.5013V30.9445C25.9681 30.8681 25.8269 30.8681 25.8269 30.9445V35.4383H19.7386V30.9445C19.7386 30.9266 19.7311 30.9095 19.7179 30.8969C19.7047 30.8842 19.6867 30.8771 19.668 30.8771H19.6821Z" fill="white"/>
<path d="M22.7758 31.7084C22.6946 31.7084 22.6168 31.6776 22.5594 31.6228C22.502 31.568 22.4697 31.4937 22.4697 31.4163V27.9336H21.7729C21.6917 27.9336 21.6138 27.9028 21.5564 27.848C21.499 27.7932 21.4668 27.7189 21.4668 27.6415C21.4668 27.564 21.499 27.4897 21.5564 27.4349C21.6138 27.3801 21.6917 27.3494 21.7729 27.3494H23.7835C23.8646 27.3494 23.9425 27.3801 23.9999 27.4349C24.0573 27.4897 24.0895 27.564 24.0895 27.6415C24.0895 27.7189 24.0573 27.7932 23.9999 27.848C23.9425 27.9028 23.8646 27.9336 23.7835 27.9336H23.0724V31.4163C23.0725 31.4922 23.0415 31.5652 22.9862 31.6197C22.9308 31.6742 22.8553 31.706 22.7758 31.7084Z" fill="white"/>
<path d="M22.7758 31.933C22.6322 31.933 22.4944 31.8786 22.3929 31.7817C22.2913 31.6847 22.2343 31.5533 22.2343 31.4162V28.1582H21.7634C21.6198 28.1582 21.4821 28.1038 21.3805 28.0068C21.279 27.9099 21.2219 27.7785 21.2219 27.6414C21.2219 27.5044 21.279 27.3729 21.3805 27.276C21.4821 27.1791 21.6198 27.1246 21.7634 27.1246H23.774C23.9176 27.1246 24.0554 27.1791 24.1569 27.276C24.2585 27.3729 24.3155 27.5044 24.3155 27.6414C24.3155 27.7785 24.2585 27.9099 24.1569 28.0068C24.0554 28.1038 23.9176 28.1582 23.774 28.1582H23.3031V31.4162C23.302 31.5506 23.2465 31.6795 23.1483 31.7757C23.05 31.872 22.9165 31.9284 22.7758 31.933ZM21.7728 27.574C21.7541 27.574 21.7361 27.5811 21.7229 27.5938C21.7096 27.6064 21.7022 27.6235 21.7022 27.6414C21.7022 27.6593 21.7096 27.6764 21.7229 27.6891C21.7361 27.7017 21.7541 27.7088 21.7728 27.7088H22.7146V31.4162C22.7146 31.4881 22.8558 31.4881 22.8558 31.4162V27.7088H23.7976C23.8163 27.7088 23.8343 27.7017 23.8475 27.6891C23.8607 27.6764 23.8682 27.6593 23.8682 27.6414C23.8682 27.6235 23.8607 27.6064 23.8475 27.5938C23.8343 27.5811 23.8163 27.574 23.7976 27.574H21.7728Z" fill="white"/>
<path d="M16.5084 18.8965C16.4572 18.8973 16.4068 18.8849 16.3624 18.8605C16.3076 18.8324 16.2633 18.7889 16.2354 18.7358C16.2076 18.6827 16.1977 18.6226 16.207 18.5639L16.8239 14.5195H14.0976C14.0164 14.5195 13.9385 14.4887 13.8811 14.4339C13.8237 14.3792 13.7915 14.3049 13.7915 14.2274V3.55907C13.7915 3.4816 13.8237 3.4073 13.8811 3.35252C13.9385 3.29774 14.0164 3.26697 14.0976 3.26697H31.4584C31.4986 3.26697 31.5384 3.27452 31.5755 3.2892C31.6126 3.30388 31.6464 3.3254 31.6748 3.35252C31.7032 3.37965 31.7257 3.41185 31.7411 3.44728C31.7565 3.48272 31.7644 3.52071 31.7644 3.55907V14.2409C31.7644 14.2792 31.7565 14.3172 31.7411 14.3527C31.7257 14.3881 31.7032 14.4203 31.6748 14.4474C31.6464 14.4745 31.6126 14.4961 31.5755 14.5107C31.5384 14.5254 31.4986 14.533 31.4584 14.533H22.0411L16.7062 18.8291C16.6504 18.8728 16.5805 18.8966 16.5084 18.8965ZM14.4036 13.9308H17.1817C17.2256 13.9317 17.2687 13.9414 17.3083 13.9593C17.348 13.9773 17.3832 14.003 17.4116 14.0348C17.4401 14.0666 17.4612 14.1039 17.4735 14.144C17.4858 14.1842 17.4891 14.2264 17.4831 14.2678L16.951 17.8854L21.7774 14.0162C21.8319 13.9735 21.8999 13.9497 21.9704 13.9488H31.1523V3.85116H14.4036V13.9308Z" fill="white"/>
<path d="M16.5085 19.1212C16.4166 19.1207 16.3262 19.0991 16.2448 19.0583C16.1497 19.0068 16.0731 18.929 16.0252 18.8351C15.9773 18.7413 15.9603 18.6358 15.9764 18.5325L16.5556 14.7577H14.0977C14.0264 14.7583 13.9557 14.7453 13.8897 14.7196C13.8237 14.6938 13.7638 14.6558 13.7134 14.6077C13.663 14.5596 13.6231 14.5024 13.5961 14.4394C13.5691 14.3764 13.5555 14.3089 13.5562 14.2409V3.55909C13.5555 3.49106 13.5691 3.42359 13.5961 3.36062C13.6231 3.29765 13.663 3.24044 13.7134 3.19233C13.7638 3.14422 13.8237 3.10618 13.8897 3.08042C13.9557 3.05466 14.0264 3.04171 14.0977 3.0423H31.4585C31.5311 3.03989 31.6036 3.05147 31.6715 3.07636C31.7394 3.10125 31.8013 3.13893 31.8536 3.18716C31.9059 3.2354 31.9475 3.29318 31.9759 3.35709C32.0042 3.42099 32.0188 3.48969 32.0188 3.55909V14.2409C32.0188 14.3088 32.0048 14.376 31.9776 14.4387C31.9504 14.5014 31.9105 14.5583 31.8602 14.6063C31.8099 14.6543 31.7502 14.6924 31.6845 14.7184C31.6188 14.7443 31.5484 14.7577 31.4773 14.7577H22.1306L16.8569 18.9999C16.7602 19.0796 16.6363 19.1228 16.5085 19.1212ZM14.0977 3.49169C14.0884 3.49169 14.0792 3.49343 14.0706 3.49682C14.0621 3.50021 14.0543 3.50517 14.0477 3.51143C14.0412 3.51769 14.036 3.52512 14.0324 3.5333C14.0289 3.54148 14.027 3.55024 14.027 3.55909V14.2409C14.027 14.2588 14.0345 14.2759 14.0477 14.2886C14.061 14.3012 14.0789 14.3083 14.0977 14.3083H17.0971L16.4426 18.5954C16.4405 18.6085 16.4426 18.6219 16.4484 18.6339C16.4543 18.6458 16.4637 18.6559 16.4755 18.6628H16.5085C16.5238 18.6673 16.5402 18.6673 16.5556 18.6628L21.9799 14.3128H31.4585C31.4677 14.3128 31.4769 14.3111 31.4855 14.3077C31.4941 14.3043 31.5019 14.2993 31.5084 14.2931C31.515 14.2868 31.5202 14.2794 31.5237 14.2712C31.5273 14.263 31.5291 14.2543 31.5291 14.2454V3.55909C31.5291 3.55024 31.5273 3.54148 31.5237 3.5333C31.5202 3.52512 31.515 3.51769 31.5084 3.51143C31.5019 3.50517 31.4941 3.50021 31.4855 3.49682C31.4769 3.49343 31.4677 3.49169 31.4585 3.49169H14.0977ZM16.6074 18.4247L17.2525 14.2364C17.2586 14.2189 17.2586 14.2 17.2525 14.1825C17.2389 14.1688 17.2203 14.1608 17.2007 14.16H14.1871V3.6265H31.3878V14.1735H21.9705C21.9631 14.1705 21.9551 14.169 21.947 14.169C21.9389 14.169 21.9309 14.1705 21.9234 14.1735L16.6074 18.4247ZM14.6392 13.7241H17.1818C17.2595 13.7248 17.3362 13.7412 17.4068 13.7722C17.4774 13.8031 17.5403 13.848 17.5915 13.9039C17.6423 13.9601 17.6796 14.0262 17.7008 14.0976C17.7219 14.1691 17.7264 14.244 17.7139 14.3173L17.243 17.3372L21.5985 13.8455C21.6963 13.7675 21.8196 13.7245 21.947 13.7241H30.8934V4.07588H14.6392V13.7241Z" fill="white"/>
<path d="M24.857 5.64875H17.2055C17.1302 5.63986 17.061 5.60503 17.0108 5.55082C16.9606 5.49661 16.9329 5.42675 16.9329 5.3544C16.9329 5.28205 16.9606 5.2122 17.0108 5.15799C17.061 5.10378 17.1302 5.06895 17.2055 5.06006H24.857C24.9322 5.06895 25.0015 5.10378 25.0517 5.15799C25.1019 5.2122 25.1296 5.28205 25.1296 5.3544C25.1296 5.42675 25.1019 5.49661 25.0517 5.55082C25.0015 5.60503 24.9322 5.63986 24.857 5.64875Z" fill="white"/>
<path d="M24.8571 5.8734H17.2055C17.07 5.86135 16.9441 5.80146 16.8524 5.70546C16.7608 5.60945 16.71 5.48425 16.71 5.35436C16.71 5.22448 16.7608 5.09928 16.8524 5.00327C16.9441 4.90726 17.07 4.84737 17.2055 4.83533H24.8571C24.9926 4.84737 25.1185 4.90726 25.2101 5.00327C25.3018 5.09928 25.3526 5.22448 25.3526 5.35436C25.3526 5.48425 25.3018 5.60945 25.2101 5.70546C25.1185 5.80146 24.9926 5.86135 24.8571 5.8734ZM17.2055 5.28471C17.1864 5.28585 17.1684 5.29393 17.1553 5.30729C17.1421 5.32066 17.1348 5.33829 17.1349 5.35661C17.1349 5.37449 17.1423 5.39163 17.1556 5.40427C17.1688 5.41692 17.1868 5.42402 17.2055 5.42402H24.8571C24.8758 5.42402 24.8938 5.41692 24.907 5.40427C24.9203 5.39163 24.9277 5.37449 24.9277 5.35661C24.9277 5.33829 24.9204 5.32066 24.9073 5.30729C24.8942 5.29393 24.8762 5.28585 24.8571 5.28471H17.2055Z" fill="white"/>
<path d="M28.3508 5.64875H26.4249C26.3497 5.63986 26.2805 5.60503 26.2303 5.55082C26.1801 5.49661 26.1523 5.42675 26.1523 5.3544C26.1523 5.28205 26.1801 5.2122 26.2303 5.15799C26.2805 5.10378 26.3497 5.06895 26.4249 5.06006H28.3508C28.426 5.06895 28.4952 5.10378 28.5455 5.15799C28.5957 5.2122 28.6234 5.28205 28.6234 5.3544C28.6234 5.42675 28.5957 5.49661 28.5455 5.55082C28.4952 5.60503 28.426 5.63986 28.3508 5.64875Z" fill="white"/>
<path d="M28.3508 5.8734H26.425C26.2895 5.86135 26.1636 5.80146 26.0719 5.70546C25.9802 5.60945 25.9294 5.48425 25.9294 5.35436C25.9294 5.22448 25.9802 5.09928 26.0719 5.00327C26.1636 4.90726 26.2895 4.84737 26.425 4.83533H28.3508C28.4863 4.84737 28.6122 4.90726 28.7039 5.00327C28.7956 5.09928 28.8464 5.22448 28.8464 5.35436C28.8464 5.48425 28.7956 5.60945 28.7039 5.70546C28.6122 5.80146 28.4863 5.86135 28.3508 5.8734ZM26.425 5.28471C26.4058 5.28585 26.3879 5.29393 26.3747 5.30729C26.3616 5.32066 26.3543 5.33829 26.3544 5.35661C26.3544 5.37449 26.3618 5.39163 26.375 5.40427C26.3883 5.41692 26.4063 5.42402 26.425 5.42402H28.3508C28.3696 5.42402 28.3875 5.41692 28.4008 5.40427C28.414 5.39163 28.4215 5.37449 28.4215 5.35661C28.4215 5.33829 28.4142 5.32066 28.4011 5.30729C28.388 5.29393 28.37 5.28585 28.3508 5.28471H26.425Z" fill="white"/>
<path d="M14.785 31.9871H5.02872C4.98853 31.9871 4.94873 31.9795 4.91159 31.9648C4.87446 31.9501 4.84072 31.9286 4.8123 31.9015C4.78388 31.8744 4.76134 31.8422 4.74595 31.8067C4.73057 31.7713 4.72266 31.7333 4.72266 31.695V17.108C4.72266 17.0305 4.7549 16.9563 4.8123 16.9015C4.8697 16.8467 4.94755 16.8159 5.02872 16.8159C5.10989 16.8159 5.18774 16.8467 5.24514 16.9015C5.30254 16.9563 5.33478 17.0305 5.33478 17.108V31.4029H14.785C14.8252 31.4029 14.865 31.4104 14.9022 31.4251C14.9393 31.4398 14.973 31.4613 15.0015 31.4884C15.0299 31.5155 15.0524 31.5477 15.0678 31.5832C15.0832 31.6186 15.0911 31.6566 15.0911 31.695C15.0911 31.7333 15.0832 31.7713 15.0678 31.8067C15.0524 31.8422 15.0299 31.8744 15.0015 31.9015C14.973 31.9286 14.9393 31.9501 14.9022 31.9648C14.865 31.9795 14.8252 31.9871 14.785 31.9871Z" fill="white"/>
<path d="M14.7851 32.2117H5.0288C4.88519 32.2117 4.74745 32.1573 4.6459 32.0603C4.54435 31.9634 4.4873 31.832 4.4873 31.6949V17.108C4.4873 16.9709 4.54435 16.8395 4.6459 16.7426C4.74745 16.6456 4.88519 16.5912 5.0288 16.5912C5.17241 16.5912 5.31014 16.6456 5.41169 16.7426C5.51324 16.8395 5.57029 16.9709 5.57029 17.108V31.1781H14.7851C14.9287 31.1781 15.0665 31.2326 15.168 31.3295C15.2696 31.4264 15.3266 31.5579 15.3266 31.6949C15.3266 31.832 15.2696 31.9634 15.168 32.0603C15.0665 32.1573 14.9287 32.2117 14.7851 32.2117ZM5.0288 17.0406C5.01007 17.0406 4.9921 17.0477 4.97886 17.0603C4.96561 17.073 4.95817 17.0901 4.95817 17.108V31.6949C4.95817 31.7128 4.96561 31.7299 4.97886 31.7426C4.9921 31.7552 5.01007 31.7623 5.0288 31.7623H14.7851C14.7944 31.7623 14.8036 31.7606 14.8122 31.7572C14.8207 31.7538 14.8285 31.7488 14.8351 31.7426C14.8416 31.7363 14.8468 31.7289 14.8504 31.7207C14.8539 31.7125 14.8558 31.7038 14.8558 31.6949C14.8558 31.6861 14.8539 31.6773 14.8504 31.6691C14.8468 31.6609 14.8416 31.6535 14.8351 31.6473C14.8285 31.641 14.8207 31.636 14.8122 31.6326C14.8036 31.6293 14.7944 31.6275 14.7851 31.6275H5.09943V17.108C5.09943 17.0901 5.09199 17.073 5.07874 17.0603C5.0655 17.0477 5.04753 17.0406 5.0288 17.0406Z" fill="white"/>
<path d="M28.3508 7.32043H20.7181C20.6441 7.31161 20.576 7.27729 20.5266 7.22391C20.4772 7.17053 20.45 7.10178 20.45 7.03057C20.45 6.95937 20.4772 6.89061 20.5266 6.83724C20.576 6.78386 20.6441 6.74954 20.7181 6.74072H28.3508C28.432 6.74072 28.5099 6.7715 28.5673 6.82628C28.6247 6.88106 28.6569 6.95535 28.6569 7.03282C28.6569 7.11029 28.6247 7.18459 28.5673 7.23936C28.5099 7.29414 28.432 7.32492 28.3508 7.32492V7.32043Z" fill="white"/>
<path d="M28.3507 7.54518H20.718C20.5744 7.54518 20.4367 7.49073 20.3351 7.39381C20.2336 7.29689 20.1765 7.16545 20.1765 7.02839C20.1765 6.89132 20.2336 6.75988 20.3351 6.66296C20.4367 6.56604 20.5744 6.5116 20.718 6.5116H28.3507C28.4944 6.5116 28.6321 6.56604 28.7336 6.66296C28.8352 6.75988 28.8922 6.89132 28.8922 7.02839C28.8922 7.16545 28.8352 7.29689 28.7336 7.39381C28.6321 7.49073 28.4944 7.54518 28.3507 7.54518ZM20.718 6.96098C20.6993 6.96098 20.6813 6.96808 20.6681 6.98072C20.6548 6.99336 20.6474 7.01051 20.6474 7.02839C20.6474 7.04626 20.6548 7.06341 20.6681 7.07605C20.6813 7.08869 20.6993 7.09579 20.718 7.09579H28.3507C28.3695 7.09579 28.3874 7.08869 28.4007 7.07605C28.4139 7.06341 28.4214 7.04626 28.4214 7.02839C28.4214 7.01051 28.4139 6.99336 28.4007 6.98072C28.3874 6.96808 28.3695 6.96098 28.3507 6.96098H20.718Z" fill="white"/>
<path d="M19.1313 7.3204H17.2055C17.1243 7.3204 17.0465 7.28963 16.9891 7.23485C16.9317 7.18007 16.8994 7.10577 16.8994 7.0283C16.8994 6.95083 16.9317 6.87654 16.9891 6.82176C17.0465 6.76698 17.1243 6.73621 17.2055 6.73621H19.1313C19.2125 6.73621 19.2903 6.76698 19.3477 6.82176C19.4051 6.87654 19.4374 6.95083 19.4374 7.0283C19.4374 7.10577 19.4051 7.18007 19.3477 7.23485C19.2903 7.28963 19.2125 7.3204 19.1313 7.3204Z" fill="white"/>
<path d="M19.1314 7.54518H17.2056C17.0619 7.54518 16.9242 7.49073 16.8227 7.39381C16.7211 7.29689 16.6641 7.16545 16.6641 7.02839C16.6641 6.89132 16.7211 6.75988 16.8227 6.66296C16.9242 6.56604 17.0619 6.5116 17.2056 6.5116H19.1314C19.275 6.5116 19.4127 6.56604 19.5143 6.66296C19.6158 6.75988 19.6729 6.89132 19.6729 7.02839C19.6729 7.16545 19.6158 7.29689 19.5143 7.39381C19.4127 7.49073 19.275 7.54518 19.1314 7.54518ZM17.2056 6.96098C17.1868 6.96098 17.1689 6.96808 17.1556 6.98072C17.1424 6.99336 17.1349 7.01051 17.1349 7.02839C17.1349 7.04626 17.1424 7.06341 17.1556 7.07605C17.1689 7.08869 17.1868 7.09579 17.2056 7.09579H19.1314C19.1501 7.09579 19.1681 7.08869 19.1813 7.07605C19.1946 7.06341 19.202 7.04626 19.202 7.02839C19.202 7.01051 19.1946 6.99336 19.1813 6.98072C19.1681 6.96808 19.1501 6.96098 19.1314 6.96098H17.2056Z" fill="white"/>
<path d="M24.857 8.98764H17.2055C17.1243 8.98764 17.0465 8.95686 16.9891 8.90208C16.9317 8.84731 16.8994 8.77301 16.8994 8.69554C16.8994 8.61807 16.9317 8.54377 16.9891 8.489C17.0465 8.43422 17.1243 8.40344 17.2055 8.40344H24.857C24.9382 8.40344 25.0161 8.43422 25.0735 8.489C25.1309 8.54377 25.1631 8.61807 25.1631 8.69554C25.1631 8.77301 25.1309 8.84731 25.0735 8.90208C25.0161 8.95686 24.9382 8.98764 24.857 8.98764Z" fill="white"/>
<path d="M24.8571 9.22132H17.2056C17.0619 9.22132 16.9242 9.16688 16.8227 9.06996C16.7211 8.97304 16.6641 8.8416 16.6641 8.70453C16.6641 8.56747 16.7211 8.43603 16.8227 8.33911C16.9242 8.24219 17.0619 8.18774 17.2056 8.18774H24.8571C25.0007 8.18774 25.1385 8.24219 25.24 8.33911C25.3416 8.43603 25.3986 8.56747 25.3986 8.70453C25.3986 8.8416 25.3416 8.97304 25.24 9.06996C25.1385 9.16688 25.0007 9.22132 24.8571 9.22132ZM17.2056 8.63713C17.1868 8.63713 17.1689 8.64423 17.1556 8.65687C17.1424 8.66951 17.1349 8.68666 17.1349 8.70453C17.1349 8.72241 17.1424 8.73956 17.1556 8.7522C17.1689 8.76484 17.1868 8.77194 17.2056 8.77194H24.8571C24.8758 8.77194 24.8938 8.76484 24.9071 8.7522C24.9203 8.73956 24.9277 8.72241 24.9277 8.70453C24.9277 8.68666 24.9203 8.66951 24.9071 8.65687C24.8938 8.64423 24.8758 8.63713 24.8571 8.63713H17.2056Z" fill="white"/>
<path d="M28.3508 8.98764H26.425C26.3438 8.98764 26.2659 8.95686 26.2085 8.90208C26.1511 8.84731 26.1189 8.77301 26.1189 8.69554C26.1189 8.61807 26.1511 8.54377 26.2085 8.489C26.2659 8.43422 26.3438 8.40344 26.425 8.40344H28.3508C28.432 8.40344 28.5098 8.43422 28.5672 8.489C28.6246 8.54377 28.6569 8.61807 28.6569 8.69554C28.6569 8.77301 28.6246 8.84731 28.5672 8.90208C28.5098 8.95686 28.432 8.98764 28.3508 8.98764Z" fill="white"/>
<path d="M28.3509 9.22132H26.425C26.2814 9.22132 26.1437 9.16688 26.0421 9.06996C25.9406 8.97304 25.8835 8.8416 25.8835 8.70453C25.8835 8.56747 25.9406 8.43603 26.0421 8.33911C26.1437 8.24219 26.2814 8.18774 26.425 8.18774H28.3509C28.4945 8.18774 28.6322 8.24219 28.7338 8.33911C28.8353 8.43603 28.8924 8.56747 28.8924 8.70453C28.8924 8.8416 28.8353 8.97304 28.7338 9.06996C28.6322 9.16688 28.4945 9.22132 28.3509 9.22132ZM26.425 8.63713C26.4063 8.63713 26.3883 8.64423 26.3751 8.65687C26.3619 8.66951 26.3544 8.68666 26.3544 8.70453C26.3544 8.72241 26.3619 8.73956 26.3751 8.7522C26.3883 8.76484 26.4063 8.77194 26.425 8.77194H28.3509C28.3696 8.77194 28.3876 8.76484 28.4008 8.7522C28.4141 8.73956 28.4215 8.72241 28.4215 8.70453C28.4215 8.68666 28.4141 8.66951 28.4008 8.65687C28.3876 8.64423 28.3696 8.63713 28.3509 8.63713H26.425Z" fill="white"/>
<path d="M28.3507 10.6683H20.7179C20.6368 10.6683 20.5589 10.6375 20.5015 10.5827C20.4441 10.528 20.4119 10.4537 20.4119 10.3762C20.4119 10.2987 20.4441 10.2244 20.5015 10.1697C20.5589 10.1149 20.6368 10.0841 20.7179 10.0841H28.3507C28.4318 10.0841 28.5097 10.1149 28.5671 10.1697C28.6245 10.2244 28.6567 10.2987 28.6567 10.3762C28.6567 10.4537 28.6245 10.528 28.5671 10.5827C28.5097 10.6375 28.4318 10.6683 28.3507 10.6683Z" fill="white"/>
<path d="M28.3507 10.8931H20.718C20.5744 10.8931 20.4367 10.8386 20.3351 10.7417C20.2336 10.6448 20.1765 10.5133 20.1765 10.3763C20.1765 10.2392 20.2336 10.1078 20.3351 10.0109C20.4367 9.91394 20.5744 9.8595 20.718 9.8595H28.3507C28.4944 9.8595 28.6321 9.91394 28.7336 10.0109C28.8352 10.1078 28.8922 10.2392 28.8922 10.3763C28.8922 10.5133 28.8352 10.6448 28.7336 10.7417C28.6321 10.8386 28.4944 10.8931 28.3507 10.8931ZM20.718 10.3089C20.6993 10.3089 20.6813 10.316 20.6681 10.3286C20.6548 10.3413 20.6474 10.3584 20.6474 10.3763C20.6467 10.3853 20.648 10.3944 20.6513 10.4029C20.6546 10.4113 20.6598 10.419 20.6665 10.4254C20.6732 10.4318 20.6813 10.4368 20.6902 10.4399C20.6991 10.4431 20.7086 10.4444 20.718 10.4437H28.3507C28.3695 10.4437 28.3874 10.4366 28.4007 10.424C28.4139 10.4113 28.4214 10.3942 28.4214 10.3763C28.4214 10.3584 28.4139 10.3413 28.4007 10.3286C28.3874 10.316 28.3695 10.3089 28.3507 10.3089H20.718Z" fill="white"/>
<path d="M19.1313 10.6683H17.2055C17.1243 10.6683 17.0465 10.6375 16.9891 10.5827C16.9317 10.528 16.8994 10.4537 16.8994 10.3762C16.8994 10.2987 16.9317 10.2244 16.9891 10.1697C17.0465 10.1149 17.1243 10.0841 17.2055 10.0841H19.1313C19.2125 10.0841 19.2903 10.1149 19.3477 10.1697C19.4051 10.2244 19.4374 10.2987 19.4374 10.3762C19.4374 10.4537 19.4051 10.528 19.3477 10.5827C19.2903 10.6375 19.2125 10.6683 19.1313 10.6683Z" fill="white"/>
<path d="M19.1314 10.8931H17.2056C17.0619 10.8931 16.9242 10.8386 16.8227 10.7417C16.7211 10.6448 16.6641 10.5133 16.6641 10.3763C16.6641 10.2392 16.7211 10.1078 16.8227 10.0109C16.9242 9.91394 17.0619 9.8595 17.2056 9.8595H19.1314C19.275 9.8595 19.4127 9.91394 19.5143 10.0109C19.6158 10.1078 19.6729 10.2392 19.6729 10.3763C19.6729 10.5133 19.6158 10.6448 19.5143 10.7417C19.4127 10.8386 19.275 10.8931 19.1314 10.8931ZM17.2056 10.3089C17.1868 10.3089 17.1689 10.316 17.1556 10.3286C17.1424 10.3413 17.1349 10.3584 17.1349 10.3763C17.1349 10.3942 17.1424 10.4113 17.1556 10.424C17.1689 10.4366 17.1868 10.4437 17.2056 10.4437H19.1314C19.1501 10.4437 19.1681 10.4366 19.1813 10.424C19.1946 10.4113 19.202 10.3942 19.202 10.3763C19.202 10.3584 19.1946 10.3413 19.1813 10.3286C19.1681 10.316 19.1501 10.3089 19.1314 10.3089H17.2056Z" fill="white"/>
<path d="M24.857 12.3446H17.2055C17.1243 12.3446 17.0465 12.3138 16.9891 12.259C16.9317 12.2042 16.8994 12.1299 16.8994 12.0525C16.8994 11.975 16.9317 11.9007 16.9891 11.8459C17.0465 11.7912 17.1243 11.7604 17.2055 11.7604H24.857C24.9382 11.7604 25.0161 11.7912 25.0735 11.8459C25.1309 11.9007 25.1631 11.975 25.1631 12.0525C25.1631 12.1299 25.1309 12.2042 25.0735 12.259C25.0161 12.3138 24.9382 12.3446 24.857 12.3446Z" fill="white"/>
<path d="M24.8571 12.5828H17.2056C17.0619 12.5828 16.9242 12.5283 16.8227 12.4314C16.7211 12.3345 16.6641 12.203 16.6641 12.066C16.6641 11.9289 16.7211 11.7975 16.8227 11.7006C16.9242 11.6036 17.0619 11.5492 17.2056 11.5492H24.8571C25.0007 11.5492 25.1385 11.6036 25.24 11.7006C25.3416 11.7975 25.3986 11.9289 25.3986 12.066C25.3986 12.203 25.3416 12.3345 25.24 12.4314C25.1385 12.5283 25.0007 12.5828 24.8571 12.5828ZM17.2056 11.9986C17.1868 11.9986 17.1689 12.0057 17.1556 12.0183C17.1424 12.031 17.1349 12.0481 17.1349 12.066C17.1349 12.0839 17.1424 12.101 17.1556 12.1136C17.1689 12.1263 17.1868 12.1334 17.2056 12.1334H24.8571C24.8758 12.1334 24.8938 12.1263 24.9071 12.1136C24.9203 12.101 24.9277 12.0839 24.9277 12.066C24.9277 12.0481 24.9203 12.031 24.9071 12.0183C24.8938 12.0057 24.8758 11.9986 24.8571 11.9986H17.2056Z" fill="white"/>
<path d="M28.3508 12.3446H26.425C26.3438 12.3446 26.2659 12.3138 26.2085 12.259C26.1511 12.2042 26.1189 12.1299 26.1189 12.0525C26.1189 11.975 26.1511 11.9007 26.2085 11.8459C26.2659 11.7912 26.3438 11.7604 26.425 11.7604H28.3508C28.432 11.7604 28.5098 11.7912 28.5672 11.8459C28.6246 11.9007 28.6569 11.975 28.6569 12.0525C28.6569 12.1299 28.6246 12.2042 28.5672 12.259C28.5098 12.3138 28.432 12.3446 28.3508 12.3446Z" fill="white"/>
<path d="M28.3509 12.5828H26.425C26.2814 12.5828 26.1437 12.5283 26.0421 12.4314C25.9406 12.3345 25.8835 12.203 25.8835 12.066C25.8835 11.9289 25.9406 11.7975 26.0421 11.7006C26.1437 11.6036 26.2814 11.5492 26.425 11.5492H28.3509C28.4945 11.5492 28.6322 11.6036 28.7338 11.7006C28.8353 11.7975 28.8924 11.9289 28.8924 12.066C28.8924 12.203 28.8353 12.3345 28.7338 12.4314C28.6322 12.5283 28.4945 12.5828 28.3509 12.5828ZM26.425 11.9986C26.4063 11.9986 26.3883 12.0057 26.3751 12.0183C26.3619 12.031 26.3544 12.0481 26.3544 12.066C26.3544 12.0839 26.3619 12.101 26.3751 12.1136C26.3883 12.1263 26.4063 12.1334 26.425 12.1334H28.3509C28.3696 12.1334 28.3876 12.1263 28.4008 12.1136C28.4141 12.101 28.4215 12.0839 28.4215 12.066C28.4215 12.0481 28.4141 12.031 28.4008 12.0183C28.3876 12.0057 28.3696 11.9986 28.3509 11.9986H26.425Z" fill="white"/>
</svg>
