<svg width="27" height="36" viewBox="0 0 27 36" fill="none" xmlns="http://www.w3.org/2000/svg">
<g clip-path="url(#clip0)">
<path d="M17.1197 30.8411H9.88012C9.80866 30.8417 9.7378 30.8279 9.67161 30.8004C9.60543 30.7728 9.54523 30.7322 9.4945 30.6808C9.44377 30.6295 9.4035 30.5683 9.37602 30.501C9.34854 30.4336 9.33439 30.3614 9.3344 30.2884C9.33285 30.1833 9.36196 30.08 9.41801 29.9918C9.95372 28.9552 10.3617 27.8548 10.6327 26.7158C10.8568 25.7662 10.8883 24.7798 10.7251 23.8173C8.95412 23.2592 7.37999 22.1879 6.194 20.7336C5.00802 19.2793 4.26125 17.5046 4.04442 15.6251C2.99602 15.2464 2.07841 14.564 1.40383 13.6613C0.639291 12.6559 0.22293 11.42 0.219971 10.1471V3.76137C0.219971 3.61477 0.277002 3.47418 0.37852 3.37052C0.480037 3.26686 0.617724 3.20863 0.761291 3.20863H3.99161V0.777471C3.99161 0.630876 4.04864 0.490284 4.15016 0.386625C4.25168 0.282966 4.38936 0.224731 4.53293 0.224731H22.4713C22.6153 0.224727 22.7534 0.282818 22.8557 0.386349C22.9579 0.489881 23.0159 0.630464 23.017 0.777471V3.20863H26.2386C26.3821 3.20863 26.5198 3.26686 26.6213 3.37052C26.7228 3.47418 26.7799 3.61477 26.7799 3.76137V10.1471C26.7843 11.4183 26.3739 12.6547 25.6136 13.6613C24.939 14.564 24.0214 15.2464 22.973 15.6251C22.7544 17.5053 22.006 19.2803 20.8185 20.7345C19.631 22.1887 18.0556 23.2597 16.2835 23.8173C16.113 24.7952 16.1399 25.7984 16.3628 26.7652C16.6343 27.9051 17.0516 29.0035 17.6038 30.0322C17.6692 30.1624 17.6818 30.3135 17.639 30.4531C17.5962 30.5926 17.5014 30.7094 17.375 30.7782C17.2955 30.8182 17.2083 30.8397 17.1197 30.8411ZM0.774494 3.79283V10.1471C0.774028 11.285 1.14231 12.391 1.82193 13.2928C2.47404 14.145 3.36652 14.7724 4.37889 15.0903C4.43335 15.1083 4.48148 15.1421 4.51743 15.1876C4.55338 15.2331 4.57559 15.2883 4.58134 15.3464C4.73812 17.1853 5.44314 18.9309 6.60139 20.3481C7.75148 21.774 9.29842 22.8098 11.0376 23.3185C11.0867 23.334 11.131 23.3625 11.1658 23.4012C11.2006 23.4399 11.2247 23.4874 11.2356 23.5387C11.4557 24.632 11.4361 25.7614 11.1784 26.8461C10.8931 28.0405 10.4629 29.1939 9.89772 30.2794H17.0581C16.4965 29.2237 16.0705 28.0985 15.7906 26.9315C15.5354 25.8249 15.5189 24.6749 15.7422 23.5611C15.7531 23.5091 15.7777 23.4611 15.8134 23.4223C15.8491 23.3834 15.8945 23.3553 15.9447 23.3409C17.6794 22.8296 19.2232 21.7971 20.3755 20.3778C21.5277 18.9584 22.235 17.2178 22.4053 15.3824C22.4096 15.3244 22.4307 15.2691 22.466 15.2234C22.5013 15.1778 22.5491 15.144 22.6033 15.1262C23.6163 14.8097 24.5092 14.182 25.1603 13.3287C25.8399 12.427 26.2082 11.3209 26.2077 10.183V3.77485H22.731C22.6581 3.77499 22.5878 3.7467 22.5347 3.69575C22.4815 3.6448 22.4494 3.57504 22.4449 3.50073V0.804434H4.54173V3.50073C4.54173 3.5782 4.51159 3.65249 4.45795 3.70727C4.4043 3.76205 4.33154 3.79283 4.25567 3.79283H0.774494ZM22.731 13.4815C22.6781 13.4805 22.6264 13.465 22.5813 13.4366C22.5402 13.4103 22.5061 13.3739 22.4823 13.3307C22.4585 13.2875 22.4456 13.239 22.4449 13.1894V5.56788C22.4449 5.49042 22.475 5.41612 22.5287 5.36134C22.5823 5.30656 22.6551 5.27579 22.731 5.27579H24.619C24.6945 5.27695 24.7666 5.30809 24.82 5.36262C24.8734 5.41715 24.9039 5.49078 24.9051 5.56788V9.9943C24.9075 10.7746 24.6755 11.5368 24.2405 12.1783C23.8952 12.7025 23.4299 13.1328 22.885 13.4321C22.8392 13.4629 22.7858 13.48 22.731 13.4815ZM23.017 5.84201V12.6501C23.3084 12.4262 23.5612 12.1544 23.7652 11.8458C24.1326 11.3013 24.3291 10.6555 24.3285 9.9943V5.84201H23.017ZM4.27767 13.4815C4.23136 13.4813 4.18588 13.469 4.14564 13.4456C3.52863 13.1192 3.01137 12.6259 2.65044 12.0196C2.28951 11.4133 2.09881 10.7173 2.09919 10.0078V5.56788C2.09919 5.49042 2.12933 5.41612 2.18297 5.36134C2.23662 5.30656 2.30938 5.27579 2.38525 5.27579H4.27767C4.35354 5.27579 4.4263 5.30656 4.47995 5.36134C4.5336 5.41612 4.56374 5.49042 4.56374 5.56788V13.1759C4.56298 13.226 4.54963 13.275 4.52497 13.3183C4.5003 13.3616 4.46516 13.3977 4.4229 13.4231C4.38051 13.4555 4.33034 13.4757 4.27767 13.4815ZM2.67132 5.84201V9.97632C2.66917 10.6371 2.86412 11.2829 3.23024 11.8278C3.43746 12.1381 3.69493 12.4101 3.99161 12.6322V5.84201H2.67132Z" fill="white"/>
<path d="M17.1196 31.0658H9.88002C9.67769 31.0658 9.48357 30.984 9.34009 30.8384C9.1966 30.6927 9.11541 30.495 9.11425 30.2884C9.11359 30.1403 9.15486 29.9951 9.23308 29.8704C9.75428 28.8552 10.1533 27.7794 10.4213 26.6663C10.6248 25.795 10.6621 24.8918 10.5314 24.006C8.77051 23.4214 7.20775 22.3396 6.02392 20.8858C4.84008 19.4321 4.08356 17.6658 3.84188 15.7913C2.7979 15.3884 1.88383 14.6977 1.20129 13.796C0.41615 12.7491 -0.00643597 11.4657 -0.000175572 10.147V3.76133C-0.000175572 3.55514 0.0800399 3.3574 0.222824 3.2116C0.365609 3.0658 0.559266 2.9839 0.761194 2.9839H3.77146V0.777431C3.77146 0.571244 3.85168 0.373501 3.99446 0.227704C4.13725 0.0819077 4.3309 1.06784e-10 4.53283 1.06784e-10H22.4712C22.6736 -3.41192e-06 22.8677 0.0817606 23.0111 0.227429C23.1546 0.373098 23.2358 0.570831 23.237 0.777431V2.9839H26.2385C26.3386 2.9833 26.4379 3.003 26.5305 3.04186C26.6231 3.08072 26.7073 3.13796 26.7781 3.21027C26.8489 3.28258 26.905 3.36852 26.9431 3.46311C26.9811 3.55771 27.0004 3.65907 26.9998 3.76133V10.147C27.0043 11.4676 26.5768 12.7518 25.7852 13.796C25.1039 14.699 24.1894 15.39 23.1446 15.7913C22.9069 17.6634 22.1544 19.4284 20.9743 20.8815C19.7942 22.3347 18.2349 23.4165 16.4771 24.0015C16.3383 24.9089 16.3727 25.8352 16.5783 26.7292C16.8458 27.8456 17.2557 28.9214 17.7974 29.9288C17.8432 30.0196 17.8711 30.1187 17.8794 30.2205C17.8877 30.3223 17.8763 30.4248 17.8458 30.522C17.8157 30.6185 17.7672 30.7079 17.7029 30.7851C17.6387 30.8622 17.5601 30.9256 17.4717 30.9714C17.3628 31.0296 17.2425 31.0619 17.1196 31.0658ZM9.63797 30.5086C9.66834 30.5432 9.70569 30.5708 9.74747 30.5895C9.78924 30.6081 9.83445 30.6173 9.88002 30.6164H17.1196C17.1733 30.6153 17.2261 30.6014 17.2737 30.576C17.3156 30.5534 17.3518 30.521 17.3793 30.4816L9.63797 30.5086ZM0.761194 3.43328C0.675987 3.43328 0.59427 3.46784 0.53402 3.52936C0.47377 3.59088 0.439922 3.67432 0.439922 3.76133V10.147C0.436473 11.3681 0.831328 12.5555 1.56217 13.5219C2.21692 14.3922 3.10527 15.0495 4.11914 15.4138L4.25117 15.4587V15.5981C4.46184 17.4375 5.19181 19.1748 6.35218 20.5982C7.51255 22.0216 9.05325 23.0698 10.7866 23.615L10.9142 23.6555L10.9407 23.7903C11.1108 24.7778 11.0794 25.7906 10.8482 26.7652C10.5738 27.9278 10.1583 29.051 9.61156 30.1086C9.57525 30.1663 9.55543 30.2332 9.55435 30.3018C9.5545 30.3534 9.56657 30.4042 9.58956 30.4501L9.71718 30.194C10.2787 29.1188 10.7102 27.978 11.0023 26.7967C11.2467 25.7437 11.2662 24.6494 11.0595 23.5881C11.0558 23.576 11.0496 23.5649 11.0412 23.5555C11.0328 23.5462 11.0225 23.5389 11.0111 23.5341C9.23904 23.0102 7.66212 21.9546 6.48496 20.5042C5.3078 19.0538 4.58473 17.2756 4.4096 15.4003C4.40774 15.3869 4.40221 15.3743 4.39364 15.364C4.38508 15.3537 4.37383 15.346 4.36119 15.3419C3.30188 15.0035 2.37055 14.3397 1.6942 13.441C0.973123 12.5003 0.578387 11.3417 0.571952 10.147V3.56809H4.27758C4.28624 3.56809 4.29483 3.56635 4.30284 3.56296C4.31085 3.55958 4.31812 3.55461 4.32425 3.54835C4.33038 3.54209 4.33525 3.53466 4.33856 3.52648C4.34188 3.5183 4.34359 3.50954 4.34359 3.50069V0.584197H22.6869V3.50069C22.6869 3.51856 22.6938 3.53571 22.7062 3.54835C22.7186 3.56099 22.7354 3.56809 22.7529 3.56809H26.4497V10.147C26.4508 11.3385 26.0655 12.4968 25.3539 13.441C24.6801 14.3404 23.7499 15.0045 22.6913 15.3419C22.6788 15.3457 22.6679 15.3534 22.66 15.3638C22.6521 15.3743 22.6476 15.3871 22.6473 15.4003C22.4721 17.2756 21.7491 19.0538 20.5719 20.5042C19.3947 21.9546 17.8178 23.0102 16.0458 23.5341C16.0343 23.5381 16.0241 23.5453 16.0164 23.5548C16.0086 23.5643 16.0036 23.5758 16.0018 23.5881C15.7852 24.6692 15.8017 25.7856 16.0502 26.8596C16.3246 28.0078 16.7432 29.115 17.2957 30.1535L17.4365 30.4322C17.4365 30.4322 17.4365 30.4007 17.4585 30.3872C17.4713 30.3459 17.476 30.3023 17.4722 30.2591C17.4684 30.2159 17.4563 30.1739 17.4365 30.1356C16.8664 29.0961 16.4342 27.9839 16.1514 26.8281C15.9183 25.8323 15.8898 24.7979 16.0678 23.7903L16.0898 23.6555L16.2174 23.615C17.9664 23.0703 19.5199 22.0123 20.6844 20.5727C21.8357 19.1564 22.5562 17.4272 22.7573 15.5981V15.4587L22.8893 15.4138C23.9012 15.0481 24.7878 14.391 25.4419 13.5219C26.1727 12.5555 26.5676 11.3681 26.5641 10.147V3.76133C26.5647 3.71808 26.5568 3.67515 26.5409 3.63508C26.5249 3.595 26.5013 3.5586 26.4713 3.52801C26.4414 3.49743 26.4057 3.47329 26.3665 3.45702C26.3273 3.44075 26.2852 3.43267 26.2429 3.43328H22.7969V0.777431C22.7957 0.690016 22.7609 0.606583 22.7 0.545187C22.639 0.483792 22.5568 0.449374 22.4712 0.449382H4.53283C4.44763 0.449382 4.36591 0.483944 4.30566 0.545465C4.24541 0.606986 4.21156 0.690427 4.21156 0.777431V3.43328H0.761194ZM0.998846 4.01748V10.147C1.0012 11.2408 1.35874 12.3028 2.01547 13.1669C2.63667 13.9916 3.49077 14.6018 4.46242 14.915C4.55843 14.9453 4.64332 15.0043 4.70609 15.0844C4.76887 15.1646 4.80663 15.2621 4.81449 15.3644C4.98333 17.1503 5.67413 18.8432 6.79719 20.2231C7.92025 21.6031 9.42369 22.6064 11.1123 23.1027C11.2004 23.1288 11.2798 23.1791 11.3418 23.248C11.4039 23.3169 11.4463 23.4019 11.4644 23.4937C11.6888 24.6183 11.6692 25.7794 11.4072 26.8955C11.1487 27.9859 10.7661 29.0416 10.2673 30.0412H16.7103C16.2163 29.0654 15.8409 28.0317 15.5925 26.9629C15.33 25.8255 15.312 24.6434 15.5397 23.4982C15.559 23.4062 15.6024 23.3214 15.6651 23.2525C15.7279 23.1837 15.8077 23.1335 15.8962 23.1072C17.585 22.6099 19.0881 21.6049 20.2098 20.2231C21.3315 18.8413 22.0198 17.1467 22.1852 15.3599C22.193 15.2576 22.2308 15.1601 22.2936 15.0799C22.3563 14.9998 22.4412 14.9408 22.5372 14.9105C23.5095 14.5986 24.364 13.9882 24.9842 13.1624C25.6362 12.2966 25.989 11.2347 25.9876 10.1426V3.9995H22.7309C22.5996 3.99958 22.4735 3.94761 22.3791 3.85455C22.2847 3.76148 22.2293 3.63461 22.2248 3.50069V1.0156H4.76608V3.47822C4.77085 3.61574 4.72217 3.74962 4.63066 3.85064C4.53914 3.95166 4.41222 4.01163 4.27758 4.01748H0.998846ZM22.7309 13.6927C22.5966 13.6927 22.4679 13.6382 22.373 13.5413C22.2781 13.4444 22.2248 13.3129 22.2248 13.1759V5.56784C22.2248 5.43078 22.2781 5.29934 22.373 5.20242C22.4679 5.1055 22.5966 5.05105 22.7309 5.05105H24.6189C24.7528 5.05223 24.8808 5.10705 24.9755 5.20372C25.0702 5.30038 25.1239 5.43115 25.125 5.56784V9.99426C25.1266 10.8195 24.8809 11.6255 24.4209 12.3041C24.0507 12.8685 23.5505 13.3314 22.9641 13.6522C22.8902 13.6828 22.8106 13.6966 22.7309 13.6927ZM22.7309 5.50044C22.7134 5.50044 22.6966 5.50754 22.6842 5.52018C22.6718 5.53282 22.6649 5.54997 22.6649 5.56784V13.1759C22.6639 13.187 22.6663 13.1982 22.6718 13.2079C22.6774 13.2175 22.6857 13.2252 22.6957 13.2298H22.7309H22.7617C23.2895 12.9516 23.7428 12.5459 24.082 12.0479C24.4915 11.4433 24.7096 10.7249 24.7069 9.98976V5.56784C24.7069 5.54997 24.7 5.53282 24.6876 5.52018C24.6752 5.50754 24.6584 5.50044 24.6409 5.50044H22.7309ZM4.27758 13.6927C4.19644 13.6919 4.11659 13.6719 4.04432 13.6343C3.39236 13.2872 2.8459 12.7645 2.4642 12.1228C2.0825 11.4811 1.88013 10.745 1.87904 9.99426V5.56784C1.87904 5.43078 1.93236 5.29934 2.02728 5.20242C2.12219 5.1055 2.25093 5.05105 2.38515 5.05105H4.27758C4.41145 5.05223 4.53951 5.10705 4.63418 5.20372C4.72885 5.30038 4.78254 5.43115 4.78369 5.56784V13.1759C4.78427 13.2657 4.76233 13.3541 4.71996 13.4328C4.67759 13.5114 4.6162 13.5777 4.54163 13.6253C4.46097 13.6711 4.36987 13.6944 4.27758 13.6927ZM2.38515 5.50044C2.36765 5.50044 2.35086 5.50754 2.33847 5.52018C2.32609 5.53282 2.31914 5.54997 2.31914 5.56784V9.99426C2.31606 10.7274 2.53259 11.444 2.93968 12.0479C3.27723 12.5485 3.73079 12.9561 4.25997 13.2343H4.29078H4.32599C4.33527 13.2288 4.343 13.221 4.3484 13.2115C4.3538 13.2021 4.3567 13.1913 4.35679 13.1804V5.56784C4.35679 5.54997 4.34984 5.53282 4.33746 5.52018C4.32508 5.50754 4.30829 5.50044 4.29078 5.50044H2.38515ZM4.21156 13.095L3.85948 12.8299C3.42402 12.5025 3.06978 12.0755 2.8252 11.583C2.58063 11.0906 2.45252 10.5464 2.45117 9.99426V5.63525H4.21156V13.095ZM2.89127 6.08463V9.99426C2.88958 10.6105 3.07231 11.2126 3.41498 11.7199C3.51986 11.8807 3.6392 12.0311 3.77146 12.1693V6.08463H2.89127ZM22.7969 13.095V5.63525H24.5573V9.99426C24.5576 10.702 24.3474 11.3931 23.9543 11.976C23.7349 12.3049 23.4626 12.5936 23.149 12.8299L22.7969 13.095ZM23.237 6.08463V12.1558C23.3678 12.0175 23.4856 11.867 23.5891 11.7064C23.9323 11.1994 24.115 10.5971 24.1128 9.98078V6.07115L23.237 6.08463Z" fill="white"/>
<path d="M20.7066 34.3732H6.29778C6.26022 34.3732 6.22302 34.3657 6.18831 34.351C6.1536 34.3363 6.12207 34.3148 6.09551 34.2877C6.06894 34.2605 6.04787 34.2283 6.03349 34.1929C6.01912 34.1575 6.01172 34.1195 6.01172 34.0811V30.558C6.01172 30.4805 6.04186 30.4062 6.09551 30.3514C6.14915 30.2966 6.22191 30.2659 6.29778 30.2659H20.7066C20.7825 30.2659 20.8552 30.2966 20.9089 30.3514C20.9625 30.4062 20.9927 30.4805 20.9927 30.558V34.0901C20.9904 34.166 20.9592 34.238 20.9058 34.2909C20.8524 34.3437 20.781 34.3733 20.7066 34.3732ZM6.60145 33.789H20.4205V30.8411H6.60145V33.789Z" fill="white"/>
<path d="M20.7064 34.6025H6.29764C6.23101 34.6031 6.16493 34.5902 6.10326 34.5644C6.04159 34.5386 5.98557 34.5006 5.93845 34.4525C5.89134 34.4044 5.85408 34.3472 5.82885 34.2842C5.80363 34.2212 5.79094 34.1538 5.79152 34.0857V30.5581C5.79094 30.49 5.80363 30.4226 5.82885 30.3596C5.85408 30.2966 5.89134 30.2394 5.93845 30.1913C5.98557 30.1432 6.04159 30.1052 6.10326 30.0794C6.16493 30.0536 6.23101 30.0407 6.29764 30.0413H20.7064C20.8407 30.0413 20.9694 30.0957 21.0643 30.1926C21.1592 30.2896 21.2126 30.421 21.2126 30.5581V34.0902C21.2114 34.2265 21.1576 34.3568 21.0628 34.4527C20.968 34.5487 20.8399 34.6025 20.7064 34.6025ZM6.29764 30.4817C6.28013 30.4817 6.26334 30.4888 6.25096 30.5014C6.23858 30.5141 6.23162 30.5312 6.23162 30.5491V34.0812C6.23162 34.0991 6.23858 34.1163 6.25096 34.1289C6.26334 34.1415 6.28013 34.1486 6.29764 34.1486H20.7064C20.7239 34.1486 20.7407 34.1415 20.7531 34.1289C20.7655 34.1163 20.7725 34.0991 20.7725 34.0812V30.5581C20.7725 30.5402 20.7655 30.523 20.7531 30.5104C20.7407 30.4978 20.7239 30.4907 20.7064 30.4907L6.29764 30.4817ZM20.6404 34.0138H6.36365V30.6165H20.6404V34.0138ZM6.80375 33.5644H20.2003V31.0659H6.80375V33.5644Z" fill="white"/>
<path d="M19.0915 35.7753H7.92181C7.88424 35.7753 7.84704 35.7678 7.81233 35.7531C7.77763 35.7384 7.74609 35.7169 7.71953 35.6898C7.69296 35.6627 7.67189 35.6305 7.65752 35.595C7.64314 35.5596 7.63574 35.5216 7.63574 35.4832V34.0812C7.63574 34.0428 7.64314 34.0048 7.65752 33.9694C7.67189 33.9339 7.69296 33.9017 7.71953 33.8746C7.74609 33.8475 7.77763 33.826 7.81233 33.8113C7.84704 33.7966 7.88424 33.7891 7.92181 33.7891H19.1003C19.1379 33.7891 19.1751 33.7966 19.2098 33.8113C19.2445 33.826 19.276 33.8475 19.3026 33.8746C19.3291 33.9017 19.3502 33.9339 19.3646 33.9694C19.379 34.0048 19.3864 34.0428 19.3864 34.0812V35.5012C19.3818 35.5771 19.3485 35.6482 19.2934 35.6994C19.2383 35.7506 19.1659 35.7778 19.0915 35.7753ZM8.19907 35.1911H18.8054V34.3733H8.19907V35.1911Z" fill="white"/>
<path d="M19.0913 35.9999H7.92165C7.7889 36.0024 7.66053 35.9515 7.56421 35.8581C7.46789 35.7648 7.41133 35.6366 7.40674 35.5011V34.0811C7.40673 34.0124 7.4201 33.9445 7.44609 33.8812C7.47207 33.8179 7.51014 33.7605 7.55807 33.7124C7.60601 33.6643 7.66284 33.6264 7.72527 33.601C7.78769 33.5756 7.85445 33.5631 7.92165 33.5643H19.1001C19.234 33.5655 19.3621 33.6203 19.4567 33.7169C19.5514 33.8136 19.6051 33.9444 19.6062 34.0811V35.5011C19.6005 35.6362 19.5437 35.7638 19.4476 35.8569C19.3515 35.9499 19.2238 36.0012 19.0913 35.9999ZM7.92165 34.0137C7.90414 34.0137 7.88735 34.0208 7.87497 34.0334C7.86259 34.0461 7.85564 34.0632 7.85564 34.0811V35.5011C7.85564 35.519 7.86259 35.5361 7.87497 35.5488C7.88735 35.5614 7.90414 35.5685 7.92165 35.5685H19.1001C19.1176 35.5685 19.1344 35.5614 19.1468 35.5488C19.1592 35.5361 19.1662 35.519 19.1662 35.5011V34.0811C19.1662 34.0632 19.1592 34.0461 19.1468 34.0334C19.1344 34.0208 19.1176 34.0137 19.1001 34.0137H7.92165ZM19.0341 35.4157H7.97887V34.153H19.0253L19.0341 35.4157ZM8.42777 34.9664H18.594V34.6024H8.41896L8.42777 34.9664Z" fill="white"/>
<path d="M16.0504 16.9147C15.9242 16.9153 15.8022 16.869 15.7071 16.7844L13.5066 15.1442L11.2665 16.8069C11.1475 16.8893 11.002 16.9218 10.8602 16.8975C10.7184 16.8732 10.5913 16.7941 10.5051 16.6766C10.4548 16.6054 10.4222 16.5229 10.4099 16.436C10.3976 16.3491 10.4062 16.2605 10.4347 16.1777L11.2929 13.4815L9.05281 11.8322C8.96545 11.7639 8.89997 11.6706 8.8647 11.5642C8.82943 11.4577 8.82598 11.343 8.85477 11.2345C8.88887 11.1228 8.95741 11.0252 9.05019 10.9564C9.14296 10.8875 9.25502 10.8511 9.36968 10.8526H12.1335L12.9829 8.15628C13.0176 8.04487 13.0863 7.94771 13.1789 7.87899C13.2716 7.81027 13.3833 7.77359 13.4978 7.7743C13.6122 7.77371 13.7239 7.80983 13.817 7.87757C13.9102 7.94531 13.9802 8.04123 14.0171 8.15178L14.8665 10.8481H17.6259C17.7415 10.8474 17.8544 10.8846 17.9478 10.9541C18.0413 11.0237 18.1104 11.1219 18.1452 11.2345C18.1806 11.3453 18.1804 11.4647 18.1448 11.5754C18.1092 11.6861 18.04 11.7824 17.9472 11.8502L15.7071 13.5039L16.5873 16.2002C16.6137 16.2828 16.6208 16.3706 16.6078 16.4565C16.5948 16.5424 16.5621 16.624 16.5125 16.6945C16.4583 16.7663 16.3881 16.8238 16.3077 16.8621C16.2273 16.9004 16.139 16.9185 16.0504 16.9147ZM13.5022 14.4881C13.5626 14.489 13.6211 14.5095 13.6694 14.5465L16.0152 16.2946L15.0998 13.4815C15.0805 13.4229 15.0799 13.3596 15.0981 13.3006C15.1163 13.2417 15.1523 13.1901 15.201 13.1534L17.5335 11.4323H14.6597C14.5991 11.4324 14.54 11.4129 14.4909 11.3766C14.4419 11.3402 14.4054 11.2889 14.3868 11.2301L13.5066 8.4304L12.6264 11.2301C12.6104 11.2905 12.5746 11.3436 12.5249 11.3804C12.4753 11.4171 12.4148 11.4355 12.3535 11.4323H9.4753L11.8078 13.1534C11.8519 13.1935 11.8828 13.2466 11.8962 13.3053C11.9096 13.364 11.9049 13.4256 11.8826 13.4815L11.0024 16.2856L13.3306 14.5465C13.3804 14.5091 13.4404 14.4887 13.5022 14.4881Z" fill="white"/>
<path d="M16.0503 17.1395C15.8726 17.1391 15.7008 17.0737 15.5662 16.9552L13.5022 15.4228L11.3941 16.9867C11.3138 17.0464 11.2225 17.0891 11.1258 17.1123C11.029 17.1355 10.9287 17.1386 10.8308 17.1215C10.63 17.0897 10.4497 16.9783 10.329 16.8114C10.2584 16.7123 10.2122 16.5971 10.1946 16.4758C10.177 16.3545 10.1884 16.2307 10.2278 16.1149L11.0332 13.5893L8.92514 12.0345C8.79495 11.9374 8.69806 11.8009 8.64828 11.6444C8.5985 11.4879 8.59836 11.3193 8.64787 11.1627C8.69526 11.0054 8.79111 10.868 8.92116 10.7708C9.05121 10.6736 9.2085 10.622 9.36964 10.6234H11.975L12.7628 8.08891C12.8095 7.93126 12.9052 7.7934 13.0354 7.69613C13.1656 7.59886 13.3232 7.54745 13.4845 7.54965C13.648 7.54717 13.808 7.59817 13.941 7.69521C14.0741 7.79224 14.1732 7.9302 14.2239 8.08891L15.0249 10.6189H17.6259C17.7874 10.6179 17.9451 10.6697 18.0757 10.7667C18.2064 10.8638 18.3032 11.0009 18.352 11.1582C18.4048 11.3138 18.4063 11.4829 18.3562 11.6394C18.3062 11.796 18.2073 11.9316 18.0748 12.0255L15.9667 13.5848L16.7765 16.1149C16.8148 16.2301 16.8256 16.353 16.808 16.4734C16.7904 16.5938 16.7449 16.7081 16.6753 16.8069C16.6038 16.9083 16.51 16.9912 16.4015 17.049C16.293 17.1067 16.1727 17.1377 16.0503 17.1395ZM13.5022 14.8656L15.8435 16.6002C15.8855 16.6394 15.9369 16.6667 15.9925 16.6793C16.0481 16.692 16.106 16.6895 16.1603 16.6721L13.5198 14.7128C13.5068 14.7089 13.4931 14.7089 13.4801 14.7128L10.8836 16.6586H10.9188C10.9599 16.6661 11.0021 16.6651 11.0429 16.6559C11.0837 16.6466 11.1223 16.6292 11.1564 16.6047L13.5022 14.8656ZM9.04836 11.4053C9.04921 11.4574 9.062 11.5084 9.08569 11.5545C9.10939 11.6005 9.14333 11.6403 9.18479 11.6705L11.5481 13.4186L10.6679 16.2542C10.6499 16.3023 10.644 16.3544 10.6509 16.4054C10.6579 16.4565 10.6773 16.505 10.7075 16.5463L11.7066 13.4006C11.7141 13.3894 11.7182 13.376 11.7182 13.3624C11.7182 13.3488 11.7141 13.3354 11.7066 13.3242L9.04836 11.4053ZM17.9515 11.4053L15.333 13.3422C15.3205 13.3497 15.3109 13.3615 15.3061 13.3755C15.3013 13.3894 15.3014 13.4047 15.3066 13.4186L16.3276 16.5373C16.3522 16.4967 16.3677 16.4511 16.373 16.4037C16.3784 16.3564 16.3734 16.3083 16.3584 16.2632L15.4474 13.4186L17.8151 11.684C17.8606 11.6536 17.8972 11.6112 17.9212 11.5615C17.9452 11.5117 17.9557 11.4562 17.9515 11.4009V11.4053ZM13.5022 14.2634C13.6096 14.2637 13.7142 14.2983 13.8014 14.3623L15.5882 15.7104L14.8885 13.5669C14.8537 13.4628 14.8529 13.3501 14.8862 13.2455C14.9195 13.141 14.9852 13.0503 15.0733 12.9872L16.8337 11.6705H14.6332C14.5257 11.6702 14.4211 11.6353 14.3341 11.5708C14.2472 11.5062 14.1825 11.4153 14.1491 11.311L13.4757 9.17641L12.798 11.311C12.7713 11.4186 12.7099 11.514 12.6237 11.5816C12.5375 11.6493 12.4314 11.6853 12.3227 11.684H10.1442L11.9046 13.0007C11.9923 13.0631 12.0578 13.1529 12.0912 13.2567C12.1245 13.3605 12.1239 13.4725 12.0894 13.5759L11.4425 15.6924L13.2029 14.3443C13.2918 14.2858 13.3965 14.2575 13.5022 14.2634ZM13.6034 8.03049L14.598 11.1762C14.6011 11.1904 14.6089 11.2031 14.6201 11.2122C14.6314 11.2212 14.6453 11.2259 14.6596 11.2256H17.8855C17.8562 11.1833 17.8173 11.1489 17.772 11.1254C17.7268 11.1019 17.6766 11.09 17.6259 11.0908H14.708L13.8058 8.24619C13.7912 8.19644 13.7652 8.15094 13.73 8.11344C13.6948 8.07594 13.6514 8.04751 13.6034 8.03049ZM9.10998 11.2076L12.3227 11.2346C12.3377 11.236 12.3527 11.2318 12.3649 11.2227C12.3771 11.2136 12.3855 11.2002 12.3887 11.1851L13.3833 8.03947C13.3346 8.05477 13.2903 8.08202 13.2542 8.11884C13.2181 8.15565 13.1915 8.20092 13.1765 8.25068L12.2963 11.0953H9.36964C9.3208 11.0923 9.27194 11.1008 9.22689 11.1203C9.18184 11.1398 9.14183 11.1697 9.10998 11.2076Z" fill="white"/>
</g>
<defs>
<clipPath id="clip0">
<rect width="27" height="36" fill="white"/>
</clipPath>
</defs>
</svg>
