<svg width="16" height="8" viewBox="0 0 16 8" fill="none" xmlns="http://www.w3.org/2000/svg" xmlns:xlink="http://www.w3.org/1999/xlink">
<rect width="16" height="8" fill="url(#pattern0)"/>
<defs>
<pattern id="pattern0" patternContentUnits="objectBoundingBox" width="1" height="1">
<use xlink:href="#image0" transform="scale(0.0625 0.125)"/>
</pattern>
<image id="image0" width="16" height="8" xlink:href="data:image/png;base64,iVBORw0KGgoAAAANSUhEUgAAABAAAAAICAYAAADwdn+XAAAABHNCSVQICAgIfAhkiAAAAGhJREFUKFOVkUEOQEAMRd8czXFYWogbkEjscNzKF4Qxg3bTpO17i99gZgUwAgFfGVAHM3VKYPbxVMByCLySDRZ0FfyVnHBK8CW5wTmB5jqcokwe8JtAuxbodkkDDKmQ4wziG0lUfe5DK4LxJzJ2zwpuAAAAAElFTkSuQmCC"/>
</defs>
</svg>
